Tidy work in Tidyverse
…
* `tibble` is one of the unifying features of tidyverse,
* it is a *better* `data.frame` realization,
* objects `data.frame` can be coerced to `tibble` using `as_tibble()`
]

---
name: convert_to_tibble
# Convert `data.frame` to `tibble`

``` r
as_tibble(iris)
```

```
## # A tibble: 150 × 5
##    Sepal.Length Sepal.Width Petal.Length Petal.Width Species
##           <dbl>       <dbl>        <dbl>       <dbl> <fct>  
##  1          5.1         3.5          1.4         0.2 setosa 
##  2          4.9         3            1.4         0.2 setosa 
##  3          4.7         3.2          1.3         0.2 setosa 
##  4          4.6         3.1          1.5         0.2 setosa 
##  5          5           3.6          1.4         0.2 setosa 
##  6          5.4         3.9          1.7         0.4 setosa 
##  7          4.6         3.4          1.4         0.3 setosa 
##  8          5           3.4          1.5         0.2 setosa 
##  9          4.4         2.9          1.4         0.2 setosa 
## 10          4.9         3.1          1.5         0.1 setosa 
## 11          5.4         3.7          1.5         0.2 setosa 
## 12          4.8         3.4          1.6         0.2 setosa 
## 13          4.8         3            1.4         0.1 setosa 
## 14          4.3         3            1.1         0.1 setosa 
## 15          5.8         4            1.2         0.2 setosa 
## # ℹ 135 more rows
```
…
---
name: more_on_tibbles
# More on Tibbles

* When you print a `tibble`:
  + all columns that fit the screen are shown,
  + first 10 rows are shown,
  + data type for each column is shown.

``` r
as_tibble(cars)
```

```
## # A tibble: 50 × 2
##    speed  dist
##    <dbl> <dbl>
##  1     4     2
##  2     4    10
##  3     7     4
##  4     7    22
##  5     8    16
##  6     9    10
##  7    10    18
##  8    10    26
##  9    10    34
## 10    11    17
## 11    11    28
## 12    12    14
## 13    12    20
## 14    12    24
## 15    12    28
## # ℹ 35 more rows
```
…
