Tidy Work in Tidyverse
…
vehicles %T>%
  {print(.[['cyl']])} %T>%
  {print(.[[2]])} %>%
  .$cyl

##  [1] 6 6 4 6 8 6 8 4 4 6 6 8 8 8 8 8 8 4 4 4 4 8 8 8 8 4 4 4 8 6 8 4
##  [1] 6 6 4 6 8 6 8 4 4 6 6 8 8 8 8 8 8 4 4 4 4 8 8 8 8 4 4 4 8 6 8 4
##  [1] 6 6 4 6 8 6 8 4 4 6 6 8 8 8 8 8 8 4 4 4 4 8 8 8 8 4 4 4 8 6 8 4

Print the tibble.

vehicles

## # A tibble: 32 x 11
##      mpg   cyl  disp    hp  drat    wt  qsec    vs    am  gear  carb
##    <dbl> <dbl> <dbl> <dbl> <dbl> <dbl> <dbl> <dbl> <dbl> <dbl> <dbl>
##  1  21       6  160    110  3.9   2.62  16.5     0     1     4     4
##  2  21       6  160    110  3.9   2.88  17.0     0     1     4     4
##  3  22.8     4  108     93  3.85  2.32  18.6     1     1     4     1
##  4  21.4     6  258    110  3.08  3.22  19.4     1     0     3     1
##  5  18.7     8  360    175  3.15  3.44  17.0     0     0     3     2
##  6  18.1     6  225    105  2.76  3.46  20.2     1     0     3     1
##  7  14.3     8  360    245  3.21  3.57  15.8     0     0     3     4
##  8  24.4     4  147.    62  3.69  3.19  20       1     0     4     2
##  9  22.8     4  141.    95  3.92  3.15  22.9     1     0     4     2
## 10  19.2     6  168.   123  3.92  3.44  18.3     1     0     4     4
## 11  17.8     6  168.   123  3.92  3.44  18.9     1     0     4     4
## 12  16.4     8  276.   180  3.07  4.07  17.4     0     0     3     3
## 13  17.3     8  276.   180  3.07  3.73  17.6     0     0     3     3
## 14  15.2     8  276.   180  3.07  3.78  18       0     0     3     3
## 15  10.4     8  472    205  2.93  5.25  18.0     0     0     3     4
## # … with 17 more rows
…
Load the nycflights13 package (install if necessary)

install.packages('nycflights13')
library(nycflights13)

Read about the data in the package docs

?nycflights13

Inspect the flights tibble.

flights

## # A tibble: 336,776 x 19
##     year month   day dep_time sched_dep_time dep_delay arr_time sched_arr_time arr_delay carrier
##    <int> <int> <int>    <int>          <int>     <dbl>    <int>          <int>     <dbl> <chr>  
##  1  2013     1     1      517            515         2      830            819        11 UA     
##  2  2013     1     1      533            529         4      850            830        20 UA     
##  3  2013     1     1      542            540         2      923            850        33 AA     
##  4  2013     1     1      544            545        -1     1004           1022       -18 B6     
##  5  2013     1     1      554            600        -6      812            837       -25 DL     
##  6  2013     1     1      554            558        -4      740            728        12 UA     
##  7  2013     1     1      555            600        -5      913            854        19 B6     
##  8  2013     1     1      557            600        -3      709            723       -14 EV     
##  9  2013     1     1      557            600        -3      838            846        -8 B6     
## 10  2013     1     1      558            600        -2      753            745         8 AA     
## 11  2013     1     1      558            600        -2      849            851        -2 B6     
## 12  2013     1     1      558            600        -2      853            856        -3 B6     
## 13  2013     1     1      558            600        -2      924            917         7 UA     
## 14  2013     1     1      558            600        -2      923            937       -14 UA     
## 15  2013     1     1      559            600        -1      941            910        31 AA     
## # … with 336,761 more rows, and 9 more variables: flight <int>, tailnum <chr>, origin <chr>,
## #   dest <chr>, air_time <dbl>, distance <dbl>, hour <dbl>, minute <dbl>, time_hour <dttm>

Select all columns but carrier and arr_time

flights %>% select(-carrier, -arr_time)

## # A tibble: 336,776 x 17
##     year month   day dep_time sched_dep_time dep_delay sched_arr_time arr_delay flight tailnum
##    <int> <int> <int>    <int>          <int>     <dbl>          <int>     <dbl>  <int> <chr>  
##  1  2013     1     1      517            515         2            819        11   1545 N14228 
##  2  2013     1     1      533            529         4            830        20   1714 N24211 
##  3  2013     1     1      542            540         2            850        33   1141 N619AA 
##  4  2013     1     1      544            545        -1           1022       -18    725 N804JB 
##  5  2013     1     1      554            600        -6            837       -25    461 N668DN 
##  6  2013     1     1      554            558        -4            728        12   1696 N39463 
##  7  2013     1     1      555            600        -5            854        19    507 N516JB 
##  8  2013     1     1      557            600        -3            723       -14   5708 N829AS 
##  9  2013     1     1      557            600        -3            846        -8     79 N593JB 
## 10  2013     1     1      558            600        -2            745         8    301 N3ALAA 
## 11  2013     1     1      558            600        -2            851        -2     49 N793JB 
## 12  2013     1     1      558            600        -2            856        -3     71 N657JB 
## 13  2013     1     1      558            600        -2            917         7    194 N29129 
## 14  2013     1     1      558            600        -2            937       -14   1124 N53441 
## 15  2013     1     1      559            600        -1            910        31    707 N3DUAA 
## # … with 336,761 more rows, and 7 more variables: origin <chr>, dest <chr>, air_time <dbl>,
## #   distance <dbl>, hour <dbl>, minute <dbl>, time_hour <dttm>

Select carrier, tailnum and origin

flights %>% select(carrier, tailnum, origin)

## # A tibble: 336,776 x 3
##    carrier tailnum origin
##    <chr>   <chr>   <chr> 
##  1 UA      N14228  EWR   
##  2 UA      N24211  LGA   
##  3 AA      N619AA  JFK   
##  4 B6      N804JB  JFK   
##  5 DL      N668DN  LGA   
##  6 UA      N39463  EWR   
##  7 B6      N516JB  EWR   
##  8 EV      N829AS  LGA   
##  9 B6      N593JB  JFK   
## 10 AA      N3ALAA  LGA   
## 11 B6      N793JB  JFK   
## 12 B6      N657JB  JFK   
## 13 UA      N29129  JFK   
## 14 UA      N53441  EWR   
## 15 AA      N3DUAA  LGA   
## # … with 336,761 more rows

Hide columns from day through carrier

flights %>% select(-(day:carrier))

## # A tibble: 336,776 x 11
##     year month flight tailnum origin dest  air_time distance  hour minute time_hour          
##    <int> <int>  <int> <chr>   <chr>  <chr>    <dbl>    <dbl> <dbl>  <dbl> <dttm>             
##  1  2013     1   1545 N14228  EWR    IAH        227     1400     5     15 2013-01-01 05:00:00
##  2  2013     1   1714 N24211  LGA    IAH        227     1416     5     29 2013-01-01 05:00:00
##  3  2013     1   1141 N619AA  JFK    MIA        160     1089     5     40 2013-01-01 05:00:00
##  4  2013     1    725 N804JB  JFK    BQN        183     1576     5     45 2013-01-01 05:00:00
##  5  2013     1    461 N668DN  LGA    ATL        116      762     6      0 2013-01-01 06:00:00
##  6  2013     1   1696 N39463  EWR    ORD        150      719     5     58 2013-01-01 05:00:00
##  7  2013     1    507 N516JB  EWR    FLL        158     1065     6      0 2013-01-01 06:00:00
##  8  2013     1   5708 N829AS  LGA    IAD         53      229     6      0 2013-01-01 06:00:00
##  9  2013     1     79 N593JB  JFK    MCO        140      944     6      0 2013-01-01 06:00:00
## 10  2013     1    301 N3ALAA  LGA    ORD        138      733     6      0 2013-01-01 06:00:00
## 11  2013     1     49 N793JB  JFK    PBI        149     1028     6      0 2013-01-01 06:00:00
## 12  2013     1     71 N657JB  JFK    TPA        158     1005     6      0 2013-01-01 06:00:00
## 13  2013     1    194 N29129  JFK    LAX        345     2475     6      0 2013-01-01 06:00:00
## 14  2013     1   1124 N53441  EWR    SFO        361     2565     6      0 2013-01-01 06:00:00
## 15  2013     1    707 N3DUAA  LGA    DFW        257     1389     6      0 2013-01-01 06:00:00
## # … with 336,761 more rows

Select all columns that have to do with arrival (hint: ?tidyselect)

flights %>% select(contains('arr_'))

## # A tibble: 336,776 x 3
##    arr_time sched_arr_time arr_delay
##       <int>          <int>     <dbl>
##  1      830            819        11
##  2      850            830        20
##  3      923            850        33
##  4     1004           1022       -18
##  5      812            837       -25
##  6      740            728        12
##  7      913            854        19
##  8      709            723       -14
##  9      838            846        -8
## 10      753            745         8
## 11      849            851        -2
## 12      853            856        -3
## 13      924            917         7
## 14      923            937       -14
## 15      941            910        31
## # … with 336,761 more rows

Select columns based on a vector v <- c("arr_time", "sched_arr_time", "arr_delay")

v <- c("arr_time", "sched_arr_time", "arr_delay")
flights %>% select(v) # or
flights %>% select(one_of(v))

## # A tibble: 336,776 x 3
##    arr_time sched_arr_time arr_delay
##       <int>          <int>     <dbl>
##  1      830            819        11
##  2      850            830        20
##  3      923            850        33
##  4     1004           1022       -18
##  5      812            837       -25
##  6      740            728        12
##  7      913            854        19
##  8      709            723       -14
##  9      838            846        -8
## 10      753            745         8
## 11      849            851        -2
## 12      853            856        -3
## 13      924            917         7
## 14      923            937       -14
## 15      941            910        31
## # … with 336,761 more rows
## # A tibble: 336,776 x 3
##    arr_time sched_arr_time arr_delay
##       <int>          <int>     <dbl>
##  1      830            819        11
##  2      850            830        20
##  3      923            850        33
##  4     1004           1022       -18
##  5      812            837       -25
##  6      740            728        12
##  7      913            854        19
##  8      709            723       -14
##  9      838            846        -8
## 10      753            745         8
## 11      849            851        -2
## 12      853            856        -3
## 13      924            917         7
## 14      923            937       -14
## 15      941            910        31
## # … with 336,761 more rows
…
4.2 Filtering rows

Filter only the flights that arrived ahead of schedule

flights %>% filter(arr_delay < 0)

## # A tibble: 188,933 x 19
##     year month   day dep_time sched_dep_time dep_delay arr_time sched_arr_time arr_delay carrier
##    <int> <int> <int>    <int>          <int>     <dbl>    <int>          <int>     <dbl> <chr>  
##  1  2013     1     1      544            545        -1     1004           1022       -18 B6     
##  2  2013     1     1      554            600        -6      812            837       -25 DL     
##  3  2013     1     1      557            600        -3      709            723       -14 EV     
##  4  2013     1     1      557            600        -3      838            846        -8 B6     
##  5  2013     1     1      558            600        -2      849            851        -2 B6     
##  6  2013     1     1      558            600        -2      853            856        -3 B6     
##  7  2013     1     1      558            600        -2      923            937       -14 UA     
##  8  2013     1     1      559            559         0      702            706        -4 B6     
##  9  2013     1     1      559            600        -1      854            902        -8 UA     
## 10  2013     1     1      600            600         0      851            858        -7 B6     
## 11  2013     1     1      601            600         1      844            850        -6 B6     
## 12  2013     1     1      602            610        -8      812            820        -8 DL     
## 13  2013     1     1      606            610        -4      858            910       -12 AA     
## 14  2013     1     1      606            610        -4      837            845        -8 DL     
## 15  2013     1     1      607            607         0      858            915       -17 UA     
## # … with 188,918 more rows, and 9 more variables: flight <int>, tailnum <chr>, origin <chr>,
## #   dest <chr>, air_time <dbl>, distance <dbl>, hour <dbl>, minute <dbl>, time_hour <dttm>

Filter the flights that had departure delay between 10 and 33

flights %>% filter(dep_delay >= 10, dep_delay <= 33) # or
flights %>% filter(between(dep_delay, 10, 33))

## # A tibble: 40,558 x 19
##     year month   day dep_time sched_dep_time dep_delay arr_time sched_arr_time arr_delay carrier
##    <int> <int> <int>    <int>          <int>     <dbl>    <int>          <int>     <dbl> <chr>  
##  1  2013     1     1      611            600        11      945            931        14 UA     
##  2  2013     1     1      623            610        13      920            915         5 AA     
##  3  2013     1     1      632            608        24      740            728        12 EV     
##  4  2013     1     1      743            730        13     1107           1100         7 AA     
##  5  2013     1     1      743            730        13     1059           1056         3 DL     
##  6  2013     1     1      851            840        11     1215           1206         9 UA     
##  7  2013     1     1      906            843        23     1134           1125         9 UA     
##  8  2013     1     1      912            900        12     1241           1220        21 AA     
##  9  2013     1     1      914            900        14     1058           1043        15 UA     
## 10  2013     1     1      920            905        15     1039           1025        14 B6     
## 11  2013     1     1      921            900        21     1237           1227        10 DL     
## 12  2013     1     1      930            905        25     1218           1209         9 UA     
## 13  2013     1     1      933            904        29     1252           1210        42 B6     
## 14  2013     1     1      953            921        32     1320           1241        39 UA     
## 15  2013     1     1     1011           1001        10     1133           1128         5 EV     
## # … with 40,543 more rows, and 9 more variables: flight <int>, tailnum <chr>, origin <chr>,
## #   dest <chr>, air_time <dbl>, distance <dbl>, hour <dbl>, minute <dbl>, time_hour <dttm>
## # A tibble: 40,558 x 19
##     year month   day dep_time sched_dep_time dep_delay arr_time sched_arr_time arr_delay carrier
##    <int> <int> <int>    <int>          <int>     <dbl>    <int>          <int>     <dbl> <chr>  
##  1  2013     1     1      611            600        11      945            931        14 UA     
##  2  2013     1     1      623            610        13      920            915         5 AA     
##  3  2013     1     1      632            608        24      740            728        12 EV     
##  4  2013     1     1      743            730        13     1107           1100         7 AA     
##  5  2013     1     1      743            730        13     1059           1056         3 DL     
##  6  2013     1     1      851            840        11     1215           1206         9 UA     
##  7  2013     1     1      906            843        23     1134           1125         9 UA     
##  8  2013     1     1      912            900        12     1241           1220        21 AA     
##  9  2013     1     1      914            900        14     1058           1043        15 UA     
## 10  2013     1     1      920            905        15     1039           1025        14 B6     
## 11  2013     1     1      921            900        21     1237           1227        10 DL     
## 12  2013     1     1      930            905        25     1218           1209         9 UA     
## 13  2013     1     1      933            904        29     1252           1210        42 B6     
## 14  2013     1     1      953            921        32     1320           1241        39 UA     
## 15  2013     1     1     1011           1001        10     1133           1128         5 EV     
## # … with 40,543 more rows, and 9 more variables: flight <int>, tailnum <chr>, origin <chr>,
## #   dest <chr>, air_time <dbl>, distance <dbl>, hour <dbl>, minute <dbl>, time_hour <dttm>

Fish out all flights with unknown arrival time

flights %>% filter(is.na(arr_time))

## # A tibble: 8,713 x 19
##     year month   day dep_time sched_dep_time dep_delay arr_time sched_arr_time arr_delay carrier
##    <int> <int> <int>    <int>          <int>     <dbl>    <int>          <int>     <dbl> <chr>  
##  1  2013     1     1     2016           1930        46       NA           2220        NA EV     
##  2  2013     1     1       NA           1630        NA       NA           1815        NA EV     
##  3  2013     1     1       NA           1935        NA       NA           2240        NA AA     
##  4  2013     1     1       NA           1500        NA       NA           1825        NA AA     
##  5  2013     1     1       NA            600        NA       NA            901        NA B6     
##  6  2013     1     2     2041           2045        -4       NA           2359        NA B6     
##  7  2013     1     2     2145           2129        16       NA             33        NA UA     
##  8  2013     1     2       NA           1540        NA       NA           1747        NA EV     
##  9  2013     1     2       NA           1620        NA       NA           1746        NA EV     
## 10  2013     1     2       NA           1355        NA       NA           1459        NA EV     
## 11  2013     1     2       NA           1420        NA       NA           1644        NA EV     
## 12  2013     1     2       NA           1321        NA       NA           1536        NA EV     
## 13  2013     1     2       NA           1545        NA       NA           1910        NA AA     
## 14  2013     1     2       NA           1330        NA       NA           1640        NA AA     
## 15  2013     1     2       NA           1601        NA       NA           1735        NA UA     
## # … with 8,698 more rows, and 9 more variables: flight <int>, tailnum <chr>, origin <chr>,
## #   dest <chr>, air_time <dbl>, distance <dbl>, hour <dbl>, minute <dbl>, time_hour <dttm>
…
