Tidy Work in Tidyverse
…
vehicles %T>%
  {print(.[['cyl']])} %T>%
  {print(.[[2]])} %>%
  .$cyl

##  [1] 6 6 4 6 8 6 8 4 4 6 6 8 8 8 8 8 8 4 4 4 4 8 8 8 8 4 4 4 8 6 8 4
##  [1] 6 6 4 6 8 6 8 4 4 6 6 8 8 8 8 8 8 4 4 4 4 8 8 8 8 4 4 4 8 6 8 4
##  [1] 6 6 4 6 8 6 8 4 4 6 6 8 8 8 8 8 8 4 4 4 4 8 8 8 8 4 4 4 8 6 8 4

Print the tibble.

vehicles

## # A tibble: 32 × 11
##      mpg   cyl  disp    hp  drat    wt  qsec    vs    am  gear  carb
##    <dbl> <dbl> <dbl> <dbl> <dbl> <dbl> <dbl> <dbl> <dbl> <dbl> <dbl>
##  1  21       6  160    110  3.9   2.62  16.5     0     1     4     4
##  2  21       6  160    110  3.9   2.88  17.0     0     1     4     4
##  3  22.8     4  108     93  3.85  2.32  18.6     1     1     4     1
##  4  21.4     6  258    110  3.08  3.22  19.4     1     0     3     1
##  5  18.7     8  360    175  3.15  3.44  17.0     0     0     3     2
##  6  18.1     6  225    105  2.76  3.46  20.2     1     0     3     1
##  7  14.3     8  360    245  3.21  3.57  15.8     0     0     3     4
##  8  24.4     4  147.    62  3.69  3.19  20       1     0     4     2
##  9  22.8     4  141.    95  3.92  3.15  22.9     1     0     4     2
## 10  19.2     6  168.   123  3.92  3.44  18.3     1     0     4     4
## # … with 22 more rows

Print the 30 first rows of the tibble.

vehicles %>% head(n = 30)

## # A tibble: 30 × 11
##      mpg   cyl  disp    hp  drat    wt  qsec    vs    am  gear  carb
##    <dbl> <dbl> <dbl> <dbl> <dbl> <dbl> <dbl> <dbl> <dbl> <dbl> <dbl>
##  1  21       6  160    110  3.9   2.62  16.5     0     1     4     4
##  2  21       6  160    110  3.9   2.88  17.0     0     1     4     4
##  3  22.8     4  108     93  3.85  2.32  18.6     1     1     4     1
##  4  21.4     6  258    110  3.08  3.22  19.4     1     0     3     1
##  5  18.7     8  360    175  3.15  3.44  17.0     0     0     3     2
##  6  18.1     6  225    105  2.76  3.46  20.2     1     0     3     1
##  7  14.3     8  360    245  3.21  3.57  15.8     0     0     3     4
##  8  24.4     4  147.    62  3.69  3.19  20       1     0     4     2
##  9  22.8     4  141.    95  3.92  3.15  22.9     1     0     4     2
## 10  19.2     6  168.   123  3.92  3.44  18.3     1     0     4     4
## # … with 20 more rows
…
install.packages('nycflights13')
library(nycflights13)

Read about the data in the package docs

?nycflights13

## No documentation for 'nycflights13' in specified packages and libraries:
## you could try '??nycflights13'

Inspect the flights tibble.

flights

## # A tibble: 336,776 × 19
##     year month   day dep_time sched_dep_time dep_delay arr_time sched_arr_time
##    <int> <int> <int>    <int>          <int>     <dbl>    <int>          <int>
##  1  2013     1     1      517            515         2      830            819
##  2  2013     1     1      533            529         4      850            830
##  3  2013     1     1      542            540         2      923            850
##  4  2013     1     1      544            545        -1     1004           1022
##  5  2013     1     1      554            600        -6      812            837
##  6  2013     1     1      554            558        -4      740            728
##  7  2013     1     1      555            600        -5      913            854
##  8  2013     1     1      557            600        -3      709            723
##  9  2013     1     1      557            600        -3      838            846
## 10  2013     1     1      558            600        -2      753            745
## 11  2013     1     1      558            600        -2      849            851
## 12  2013     1     1      558            600        -2      853            856
## 13  2013     1     1      558            600        -2      924            917
## 14  2013     1     1      558            600        -2      923            937
## 15  2013     1     1      559            600        -1      941            910
## # … with 336,761 more rows, and 11 more variables: arr_delay <dbl>,
## #   carrier <chr>, flight <int>, tailnum <chr>, origin <chr>, dest <chr>,
## #   air_time <dbl>, distance <dbl>, hour <dbl>, minute <dbl>, time_hour <dttm>

Select all columns but carrier and arr_time

flights %>% select(-carrier, -arr_time)

## # A tibble: 336,776 × 17
##     year month   day dep_time sched_dep_time dep_delay sched_arr_time arr_delay
##    <int> <int> <int>    <int>          <int>     <dbl>          <int>     <dbl>
##  1  2013     1     1      517            515         2            819        11
##  2  2013     1     1      533            529         4            830        20
##  3  2013     1     1      542            540         2            850        33
##  4  2013     1     1      544            545        -1           1022       -18
##  5  2013     1     1      554            600        -6            837       -25
##  6  2013     1     1      554            558        -4            728        12
##  7  2013     1     1      555            600        -5            854        19
##  8  2013     1     1      557            600        -3            723       -14
##  9  2013     1     1      557            600        -3            846        -8
## 10  2013     1     1      558            600        -2            745         8
## 11  2013     1     1      558            600        -2            851        -2
## 12  2013     1     1      558            600        -2            856        -3
## 13  2013     1     1      558            600        -2            917         7
## 14  2013     1     1      558            600        -2            937       -14
## 15  2013     1     1      559            600        -1            910        31
## # … with 336,761 more rows, and 9 more variables: flight <int>, tailnum <chr>,
## #   origin <chr>, dest <chr>, air_time <dbl>, distance <dbl>, hour <dbl>,
## #   minute <dbl>, time_hour <dttm>

Select carrier, tailnum and origin

flights %>% select(carrier, tailnum, origin)

## # A tibble: 336,776 × 3
##    carrier tailnum origin
##    <chr>   <chr>   <chr> 
##  1 UA      N14228  EWR   
##  2 UA      N24211  LGA   
##  3 AA      N619AA  JFK   
##  4 B6      N804JB  JFK   
##  5 DL      N668DN  LGA   
##  6 UA      N39463  EWR   
##  7 B6      N516JB  EWR   
##  8 EV      N829AS  LGA   
##  9 B6      N593JB  JFK   
## 10 AA      N3ALAA  LGA   
## 11 B6      N793JB  JFK   
## 12 B6      N657JB  JFK   
## 13 UA      N29129  JFK   
## 14 UA      N53441  EWR   
## 15 AA      N3DUAA  LGA   
## # … with 336,761 more rows

Hide columns from day through carrier

flights %>% select(-(day:carrier))

## # A tibble: 336,776 × 11
##     year month flight tailnum origin dest  air_time distance  hour minute
##    <int> <int>  <int> <chr>   <chr>  <chr>    <dbl>    <dbl> <dbl>  <dbl>
##  1  2013     1   1545 N14228  EWR    IAH        227     1400     5     15
##  2  2013     1   1714 N24211  LGA    IAH        227     1416     5     29
##  3  2013     1   1141 N619AA  JFK    MIA        160     1089     5     40
##  4  2013     1    725 N804JB  JFK    BQN        183     1576     5     45
##  5  2013     1    461 N668DN  LGA    ATL        116      762     6      0
##  6  2013     1   1696 N39463  EWR    ORD        150      719     5     58
##  7  2013     1    507 N516JB  EWR    FLL        158     1065     6      0
##  8  2013     1   5708 N829AS  LGA    IAD         53      229     6      0
##  9  2013     1     79 N593JB  JFK    MCO        140      944     6      0
## 10  2013     1    301 N3ALAA  LGA    ORD        138      733     6      0
## 11  2013     1     49 N793JB  JFK    PBI        149     1028     6      0
## 12  2013     1     71 N657JB  JFK    TPA        158     1005     6      0
## 13  2013     1    194 N29129  JFK    LAX        345     2475     6      0
## 14  2013     1   1124 N53441  EWR    SFO        361     2565     6      0
## 15  2013     1    707 N3DUAA  LGA    DFW        257     1389     6      0
## # … with 336,761 more rows, and 1 more variable: time_hour <dttm>

Select all columns that have to do with arrival (hint: ?tidyselect)

flights %>% select(contains('arr_'))

## # A tibble: 336,776 × 3
##    arr_time sched_arr_time arr_delay
##       <int>          <int>     <dbl>
##  1      830            819        11
##  2      850            830        20
##  3      923            850        33
##  4     1004           1022       -18
##  5      812            837       -25
##  6      740            728        12
##  7      913            854        19
##  8      709            723       -14
##  9      838            846        -8
## 10      753            745         8
## 11      849            851        -2
## 12      853            856        -3
## 13      924            917         7
## 14      923            937       -14
## 15      941            910        31
## # … with 336,761 more rows

Select columns based on a vector v <- c("arr_time", "sched_arr_time", "arr_delay")

v <- c("arr_time", "sched_arr_time", "arr_delay")
flights %>% select(v) # or
flights %>% select(one_of(v))

## # A tibble: 336,776 × 3
##    arr_time sched_arr_time arr_delay
##       <int>          <int>     <dbl>
##  1      830            819        11
##  2      850            830        20
##  3      923            850        33
##  4     1004           1022       -18
##  5      812            837       -25
##  6      740            728        12
##  7      913            854        19
##  8      709            723       -14
##  9      838            846        -8
## 10      753            745         8
## 11      849            851        -2
## 12      853            856        -3
## 13      924            917         7
## 14      923            937       -14
## 15      941            910        31
## # … with 336,761 more rows
## # A tibble: 336,776 × 3
##    arr_time sched_arr_time arr_delay
##       <int>          <int>     <dbl>
##  1      830            819        11
##  2      850            830        20
##  3      923            850        33
##  4     1004           1022       -18
##  5      812            837       -25
##  6      740            728        12
##  7      913            854        19
##  8      709            723       -14
##  9      838            846        -8
## 10      753            745         8
## 11      849            851        -2
## 12      853            856        -3
## 13      924            917         7
## 14      923            937       -14
## 15      941            910        31
## # … with 336,761 more rows
…
4.2 Filtering rows

Filter only the flights that arrived ahead of schedule

flights %>% filter(arr_delay < 0)

## # A tibble: 188,933 × 19
##     year month   day dep_time sched_dep_time dep_delay arr_time sched_arr_time
##    <int> <int> <int>    <int>          <int>     <dbl>    <int>          <int>
##  1  2013     1     1      544            545        -1     1004           1022
##  2  2013     1     1      554            600        -6      812            837
##  3  2013     1     1      557            600        -3      709            723
##  4  2013     1     1      557            600        -3      838            846
##  5  2013     1     1      558            600        -2      849            851
##  6  2013     1     1      558            600        -2      853            856
##  7  2013     1     1      558            600        -2      923            937
##  8  2013     1     1      559            559         0      702            706
##  9  2013     1     1      559            600        -1      854            902
## 10  2013     1     1      600            600         0      851            858
## 11  2013     1     1      601            600         1      844            850
## 12  2013     1     1      602            610        -8      812            820
## 13  2013     1     1      606            610        -4      858            910
## 14  2013     1     1      606            610        -4      837            845
## 15  2013     1     1      607            607         0      858            915
## # … with 188,918 more rows, and 11 more variables: arr_delay <dbl>,
## #   carrier <chr>, flight <int>, tailnum <chr>, origin <chr>, dest <chr>,
## #   air_time <dbl>, distance <dbl>, hour <dbl>, minute <dbl>, time_hour <dttm>

Filter the flights that had departure delay between 10 and 33

flights %>% filter(dep_delay >= 10, dep_delay <= 33) # or
flights %>% filter(between(dep_delay, 10, 33))

## # A tibble: 40,558 × 19
##     year month   day dep_time sched_dep_time dep_delay arr_time sched_arr_time
##    <int> <int> <int>    <int>          <int>     <dbl>    <int>          <int>
##  1  2013     1     1      611            600        11      945            931
##  2  2013     1     1      623            610        13      920            915
##  3  2013     1     1      632            608        24      740            728
##  4  2013     1     1      743            730        13     1107           1100
##  5  2013     1     1      743            730        13     1059           1056
##  6  2013     1     1      851            840        11     1215           1206
##  7  2013     1     1      906            843        23     1134           1125
##  8  2013     1     1      912            900        12     1241           1220
##  9  2013     1     1      914            900        14     1058           1043
## 10  2013     1     1      920            905        15     1039           1025
## 11  2013     1     1      921            900        21     1237           1227
## 12  2013     1     1      930            905        25     1218           1209
## 13  2013     1     1      933            904        29     1252           1210
## 14  2013     1     1      953            921        32     1320           1241
## 15  2013     1     1     1011           1001        10     1133           1128
## # … with 40,543 more rows, and 11 more variables: arr_delay <dbl>,
## #   carrier <chr>, flight <int>, tailnum <chr>, origin <chr>, dest <chr>,
## #   air_time <dbl>, distance <dbl>, hour <dbl>, minute <dbl>, time_hour <dttm>
## # A tibble: 40,558 × 19
##     year month   day dep_time sched_dep_time dep_delay arr_time sched_arr_time
##    <int> <int> <int>    <int>          <int>     <dbl>    <int>          <int>
##  1  2013     1     1      611            600        11      945            931
##  2  2013     1     1      623            610        13      920            915
##  3  2013     1     1      632            608        24      740            728
##  4  2013     1     1      743            730        13     1107           1100
##  5  2013     1     1      743            730        13     1059           1056
##  6  2013     1     1      851            840        11     1215           1206
##  7  2013     1     1      906            843        23     1134           1125
##  8  2013     1     1      912            900        12     1241           1220
##  9  2013     1     1      914            900        14     1058           1043
## 10  2013     1     1      920            905        15     1039           1025
## 11  2013     1     1      921            900        21     1237           1227
## 12  2013     1     1      930            905        25     1218           1209
## 13  2013     1     1      933            904        29     1252           1210
## 14  2013     1     1      953            921        32     1320           1241
## 15  2013     1     1     1011           1001        10     1133           1128
## # … with 40,543 more rows, and 11 more variables: arr_delay <dbl>,
## #   carrier <chr>, flight <int>, tailnum <chr>, origin <chr>, dest <chr>,
## #   air_time <dbl>, distance <dbl>, hour <dbl>, minute <dbl>, time_hour <dttm>

Fish out all flights with unknown arrival time

flights %>% filter(is.na(arr_time))

## # A tibble: 8,713 × 19
##     year month   day dep_time sched_dep_time dep_delay arr_time sched_arr_time
##    <int> <int> <int>    <int>          <int>     <dbl>    <int>          <int>
##  1  2013     1     1     2016           1930        46       NA           2220
##  2  2013     1     1       NA           1630        NA       NA           1815
##  3  2013     1     1       NA           1935        NA       NA           2240
##  4  2013     1     1       NA           1500        NA       NA           1825
##  5  2013     1     1       NA            600        NA       NA            901
##  6  2013     1     2     2041           2045        -4       NA           2359
##  7  2013     1     2     2145           2129        16       NA             33
##  8  2013     1     2       NA           1540        NA       NA           1747
##  9  2013     1     2       NA           1620        NA       NA           1746
## 10  2013     1     2       NA           1355        NA       NA           1459
## 11  2013     1     2       NA           1420        NA       NA           1644
## 12  2013     1     2       NA           1321        NA       NA           1536
## 13  2013     1     2       NA           1545        NA       NA           1910
## 14  2013     1     2       NA           1330        NA       NA           1640
## 15  2013     1     2       NA           1601        NA       NA           1735
## # … with 8,698 more rows, and 11 more variables: arr_delay <dbl>,
## #   carrier <chr>, flight <int>, tailnum <chr>, origin <chr>, dest <chr>,
## #   air_time <dbl>, distance <dbl>, hour <dbl>, minute <dbl>, time_hour <dttm>
…
Sample (?sample_n()) 3 random flights per day in March

flights %>% filter(month == 3) %>%
  group_by(day) %>%
  sample_n(3)

## # A tibble: 93 × 19
## # Groups:   day [31]
##     year month   day dep_time sched_dep_time dep_delay arr_time sched_arr_time
##    <int> <int> <int>    <int>          <int>     <dbl>    <int>          <int>
##  1  2013     3     1     1913           1901        12     2034           2041
##  2  2013     3     1      629            630        -1      847            845
##  3  2013     3     1     1520           1512         8     1711           1709
##  4  2013     3     2     1555           1533        22     1740           1741
##  5  2013     3     2     2011           2015        -4     2123           2130
##  6  2013     3     2      731            736        -5     1038           1115
##  7  2013     3     3     2029           2035        -6     2229           2234
##  8  2013     3     3      708            715        -7     1012           1037
##  9  2013     3     3     1717           1725        -8     1835           1855
## 10  2013     3     4     1840           1825        15     2117           2049
## 11  2013     3     4     1024           1030        -6     1205           1215
## 12  2013     3     4      711            700        11     1023           1029
## 13  2013     3     5     1837           1840        -3     1949           2012
## 14  2013     3     5      825            825         0     1124           1133
## 15  2013     3     5     1905           1915       -10     2157           2208
## # … with 78 more rows, and 11 more variables: arr_delay <dbl>, carrier <chr>,
## #   flight <int>, tailnum <chr>, origin <chr>, dest <chr>, air_time <dbl>,
## #   distance <dbl>, hour <dbl>, minute <dbl>, time_hour <dttm>
…
