Tidy work in Tidyverse
…
# More on Tibbles

* When you print a `tibble`:
  + all columns that fit the screen are shown,
  + first 10 rows are shown,
  + data type for each column is shown.

```r
as_tibble(cars) %>% print(n = 5)
```

```
## # A tibble: 50 × 2
##   speed  dist
##   <dbl> <dbl>
## 1     4     2
## 2     4    10
## 3     7     4
## 4     7    22
## 5     8    16
## # ℹ 45 more rows
```
…
